C:\Users\Alexander\IdeaProjects\letuTest\src\test\java\apiLetu\SessionData.java
C:\Users\Alexander\IdeaProjects\letuTest\src\test\java\apiLetu\testPay.java
C:\Users\Alexander\IdeaProjects\letuTest\src\test\java\apiLetu\resultData.java
C:\Users\Alexander\IdeaProjects\letuTest\src\test\java\apiLetu\addToCart.java
